Accelerated oblique random survival forests
…
--

Step 2: Fit a Bayesian linear mixed model to analyze posterior expected differences in performance:

`$$\text{metric} = \widehat{\gamma} \cdot \text{learner} + (1\,|\, \text{data/run})$$`

- `run` refers to the specific train/test split of `data` 

- `metric` is either the IPA or the time-dependent C-statistic.

---

```
## $smry
## # A tibble: 192 x 4
## # Groups:   data [32]
##    model           data                x     eval
##    <chr>           <fct>           <dbl>    <dbl>
##  1 aorsf_cph_1     Overall          31.7  0.134  
##  2 aorsf_cph_15    Overall          31.8  0.133  
##  3 randomForestSRC Overall          31.9  0.122  
##  4 cox_net         Overall          32.1  0.117  
##  5 aorsf_random    Overall          32.2  0.0945 
##  6 xgb_cox         Overall          32.3  0.0735 
##  7 aorsf_cph_1     ACTG 320; death  30.7  0.0132 
##  8 aorsf_cph_15    ACTG 320; death  30.8  0.0122 
##  9 aorsf_random    ACTG 320; death  30.9  0.00849
## 10 xgb_cox         ACTG 320; death  31.1 -0.00390
## # ... with 182 more rows
## 
## $diffs
## # A tibble: 22 x 6
##    data                                       pdiff    adiff     x   eval label 
##    <fct>                                      <dbl>    <dbl> <dbl>  <dbl> <chr> 
##  1 Overall                                    9.85  0.0120      32 0.134  +1.2 ~
##  2 ACTG 320; death                           55.8   0.00474     31 0.0132 +0.47~
##  3 MESA; stroke                               0.784 0.000192    28 0.0247 +0.02~
##  4 Early breast cancer; recurrence or death 114.    0.0322      26 0.0604 +3.2 ~
##  5 Heart Transplant; graft-loss or death      2.71  0.00139     25 0.0525 +0.14~
##  6 MESA; coronary heart disease              13.6   0.00760     24 0.0636 +0.76~
##  7 GUIDE-IT; CVD death                        3.88  0.00286     23 0.0766 +0.29~
##  8 GUIDE-IT; HF hospitalization              24.7   0.0164      22 0.0827 +1.6 ~
##  9 ARIC; stroke                               2.36  0.00215     20 0.0929 +0.21~
## 10 Colon cancer; recurrence                  14.4   0.0122      19 0.0969 +1.2 ~
## # ... with 12 more rows
## 
## $rankings
…
<img src="index_files/figure-html/bm_pred_viz_ibs-1.png" style="display: block; margin: auto;" />

---

```
## $smry
## # A tibble: 192 x 4
## # Groups:   data [32]
##    model           data             x  eval
##    <chr>           <fct>        <dbl> <dbl>
##  1 aorsf_cph_1     Overall       31.7 0.775
##  2 aorsf_cph_15    Overall       31.8 0.774
##  3 cox_net         Overall       31.9 0.763
##  4 randomForestSRC Overall       32.1 0.761
##  5 xgb_cox         Overall       32.2 0.758
##  6 aorsf_random    Overall       32.3 0.743
##  7 cox_net         FCL; relapse  30.7 0.625
##  8 xgb_cox         FCL; relapse  30.8 0.610
##  9 aorsf_random    FCL; relapse  30.9 0.601
## 10 aorsf_cph_15    FCL; relapse  31.1 0.600
## # ... with 182 more rows
## 
## $diffs
…
